Assignment: Temporal Diversity
…
If it does not meet this asumption, explore wasy to make your data stationary.

Examine and plot time lags using the partial autocorrelation function (PACF) and autocorrelation function (ACR).

Use the tools outlined in the Handout to create an ARMA model.

time.by.species_2 <- filter(portal, taxa=="Rodent") %>% group_by(year,month,plot_id) %>% count(taxon)

time.by.species_2$season <- NA
time.by.species_2$season <- time.by.species_2$month %in% c(6:10)

time.by.species_2$season <- ifelse(time.by.species_2$season == T, "rain", "norain")
group_by(time.by.species_2, year, season)

## Source: local data frame [16,391 x 6]
## Groups: year, season [52]
## 
##     year month plot_id                    taxon     n season
##    <int> <int>   <int>                    <chr> <int>  <chr>
## 1   1977     7       1       Dipodomys_merriami     2   rain
## 2   1977     7       1       Perognathus_flavus     1   rain
## 3   1977     7       2 Chaetodipus_penicillatus     1   rain
## 4   1977     7       2       Dipodomys_merriami     1   rain
## 5   1977     7       2         Neotoma_albigula     1   rain
## 6   1977     7       2      Peromyscus_eremicus     1   rain
## 7   1977     7       3       Dipodomys_merriami     2   rain
## 8   1977     7       3    Dipodomys_spectabilis     1   rain
## 9   1977     7       3         Neotoma_albigula     1   rain
## 10  1977     7       4       Dipodomys_merriami     1   rain
## # ... with 16,381 more rows
…
